{
    "extension_name": {
        "message": "UrlFollowerRemover Extension",
        "description": "The display name for the extension."
    },
    "extension_description": {
        "message": "This is UrlFollowerRemover Extension. You should tell us what your extension does here.",
        "description": "Description of what the extension does."
    }
}
